<svg width="153" height="120" viewBox="0 0 153 120" fill="none" xmlns="http://www.w3.org/2000/svg">
<g clip-path="url(#clip0)">
<path d="M9.73291 32.652C9.73291 32.652 65.9421 -12.4308 145.094 3.35127C145.094 3.35127 98.1391 25.6174 9.73291 32.652Z" fill="#1B2E50"/>
<path d="M1.60986 39.8389C1.60986 39.8389 8.80265 60.0558 26.7846 72.3512C26.7846 72.3512 25.7151 58.1747 54.4241 57.8996C78.3629 57.5068 102.18 61.3339 124.755 69.2008C133.635 61.6746 140.72 52.3074 145.506 41.7676C150.292 31.2278 152.66 19.7757 152.441 8.22888C152.441 8.22888 94.465 34.1194 1.60986 39.8389Z" fill="#1B2E50"/>
<path d="M50.0672 83.5595C50.0672 84.9107 49.6033 85.9858 48.6754 86.7847C47.7574 87.5737 46.4248 88.0176 44.6777 88.1162V89.2554H41.9977V88.1162C40.2505 87.988 38.913 87.5343 37.9852 86.7551C37.0672 85.9759 36.6082 84.9107 36.6082 83.5595C36.6082 82.2083 37.0672 81.1431 37.9852 80.3639C38.9032 79.5748 40.2407 79.1162 41.9977 78.988V77.9228H44.6777V78.988C46.4248 79.1064 47.7574 79.5601 48.6754 80.3491C49.6033 81.1283 50.0672 82.1984 50.0672 83.5595ZM44.6777 85.8379C45.5562 85.7392 46.1978 85.5025 46.6025 85.1277C47.0171 84.7529 47.2244 84.2253 47.2244 83.5447C47.2244 82.8642 47.0122 82.3414 46.5877 81.9765C46.1731 81.6116 45.5364 81.3798 44.6777 81.2811V85.8379ZM39.451 83.5595C39.451 84.2302 39.6632 84.748 40.0877 85.1129C40.5121 85.4779 41.1488 85.7146 41.9977 85.8231V81.2811C41.1093 81.3798 40.4628 81.6116 40.0581 81.9765C39.6533 82.3414 39.451 82.8691 39.451 83.5595ZM56.8315 88.9743C55.7358 88.9743 54.7487 88.7425 53.8702 88.279C53.0015 87.8154 52.3155 87.1743 51.8121 86.3557C51.3185 85.537 51.0718 84.6148 51.0718 83.5891C51.0718 82.5633 51.3185 81.6411 51.8121 80.8225C52.3155 80.0039 53.0015 79.3628 53.8702 78.8992C54.7487 78.4357 55.7358 78.2039 56.8315 78.2039C57.9271 78.2039 58.9093 78.4357 59.778 78.8992C60.6565 79.3628 61.3425 80.0039 61.8361 80.8225C62.3395 81.6411 62.5912 82.5633 62.5912 83.5891C62.5912 84.6148 62.3395 85.537 61.8361 86.3557C61.3425 87.1743 60.6565 87.8154 59.778 88.279C58.9093 88.7425 57.9271 88.9743 56.8315 88.9743ZM56.8315 86.548C57.3546 86.548 57.8284 86.4247 58.2529 86.1781C58.6773 85.9316 59.013 85.5863 59.2597 85.1425C59.5065 84.6888 59.6299 84.171 59.6299 83.5891C59.6299 83.0072 59.5065 82.4943 59.2597 82.0505C59.013 81.5968 58.6773 81.2466 58.2529 81.0001C57.8284 80.7535 57.3546 80.6302 56.8315 80.6302C56.3083 80.6302 55.8345 80.7535 55.41 81.0001C54.9856 81.2466 54.65 81.5968 54.4032 82.0505C54.1564 82.4943 54.033 83.0072 54.033 83.5891C54.033 84.171 54.1564 84.6888 54.4032 85.1425C54.65 85.5863 54.9856 85.9316 55.41 86.1781C55.8345 86.4247 56.3083 86.548 56.8315 86.548ZM74.1679 78.411V88.7672H71.2362V84.7283H67.2384V88.7672H64.3068V78.411H67.2384V82.302H71.2362V78.411H74.1679ZM87.6485 86.4444V90.8532H84.9685V88.7672H78.3352V90.8532H75.6404V86.4444H76.0106C76.6226 86.4346 77.052 86.0154 77.2988 85.1869C77.5554 84.3584 77.7133 83.165 77.7726 81.6066L77.891 78.411H86.2419V86.4444H87.6485ZM80.3341 81.8581C80.2946 82.9628 80.2058 83.8998 80.0676 84.6691C79.9294 85.4384 79.7171 86.0302 79.4309 86.4444H83.3546V80.7337H80.3785L80.3341 81.8581ZM47.1652 93.2055V103.562H44.2335V99.5228H40.2357V103.562H37.3041V93.2055H40.2357V97.0965H44.2335V93.2055H47.1652ZM59.3866 93.2055L55.0927 101.209C54.6386 102.067 54.0809 102.718 53.4196 103.162C52.7681 103.606 52.0524 103.828 51.2726 103.828C50.7001 103.828 50.0881 103.7 49.4366 103.443L50.1325 101.283C50.5372 101.402 50.8827 101.461 51.169 101.461C51.4552 101.461 51.707 101.397 51.9241 101.269C52.1511 101.14 52.3584 100.938 52.546 100.662L48.5186 93.2055H51.6132L54.0266 98.2061L56.5289 93.2055H59.3866ZM65.2131 93.2055C66.1508 93.2055 66.9652 93.3633 67.6561 93.679C68.3471 93.9847 68.8801 94.4285 69.2552 95.0105C69.6303 95.5825 69.8179 96.2581 69.8179 97.0373C69.8179 97.8165 69.6303 98.4921 69.2552 99.0642C68.8801 99.6362 68.3471 100.08 67.6561 100.396C66.9652 100.701 66.1508 100.854 65.2131 100.854H63.4067V103.562H60.475V93.2055H65.2131ZM65.0354 98.5464C65.6375 98.5464 66.0916 98.4181 66.3976 98.1617C66.7036 97.8954 66.8566 97.5206 66.8566 97.0373C66.8566 96.554 66.7036 96.1792 66.3976 95.9129C66.0916 95.6466 65.6375 95.5135 65.0354 95.5135H63.4067V98.5464H65.0354ZM76.4877 103.769C75.4019 103.769 74.4247 103.542 73.556 103.088C72.6972 102.625 72.0211 101.984 71.5275 101.165C71.034 100.346 70.7872 99.4192 70.7872 98.3836C70.7872 97.348 71.034 96.4209 71.5275 95.6022C72.0211 94.7836 72.6972 94.1474 73.556 93.6938C74.4247 93.2302 75.4019 92.9984 76.4877 92.9984C77.4353 92.9984 78.2891 93.1661 79.0492 93.5014C79.8093 93.8368 80.441 94.3201 80.9444 94.9513L79.0788 96.6379C78.4076 95.8291 77.5932 95.4247 76.6358 95.4247C76.0731 95.4247 75.5697 95.548 75.1255 95.7946C74.6912 96.0411 74.3506 96.3913 74.1039 96.845C73.867 97.2888 73.7485 97.8017 73.7485 98.3836C73.7485 98.9655 73.867 99.4833 74.1039 99.937C74.3506 100.381 74.6912 100.726 75.1255 100.973C75.5697 101.219 76.0731 101.343 76.6358 101.343C77.5932 101.343 78.4076 100.938 79.0788 100.129L80.9444 101.816C80.441 102.447 79.8093 102.93 79.0492 103.266C78.2891 103.601 77.4353 103.769 76.4877 103.769ZM92.0897 93.2055L87.7959 101.209C87.3418 102.067 86.7841 102.718 86.1227 103.162C85.4713 103.606 84.7556 103.828 83.9758 103.828C83.4033 103.828 82.7913 103.7 82.1398 103.443L82.8357 101.283C83.2404 101.402 83.5859 101.461 83.8722 101.461C84.1584 101.461 84.4101 101.397 84.6273 101.269C84.8543 101.14 85.0616 100.938 85.2492 100.662L81.2218 93.2055H84.3164L86.7298 98.2061L89.2321 93.2055H92.0897ZM102.644 93.2055V103.562H99.757V95.5283H96.7809L96.7217 97.2148C96.6723 98.6943 96.549 99.8976 96.3515 100.825C96.164 101.752 95.8382 102.472 95.3743 102.985C94.9104 103.488 94.254 103.739 93.4051 103.739C93.0102 103.739 92.566 103.68 92.0725 103.562L92.2353 101.165C92.3637 101.195 92.4969 101.209 92.6351 101.209C93.0201 101.209 93.3162 101.056 93.5235 100.751C93.7308 100.445 93.8789 100.021 93.9677 99.4784C94.0565 98.9261 94.1158 98.211 94.1454 97.3332L94.2934 93.2055H102.644ZM113.36 95.5283H110.192V103.562H107.305V95.5283H104.121V93.2055H113.36V95.5283ZM121.491 101.55H117.108L116.294 103.562H113.303L117.878 93.2055H120.765L125.355 103.562H122.305L121.491 101.55ZM120.632 99.3896L119.299 96.0757L117.967 99.3896H120.632ZM136.552 93.2055V103.562H133.621V99.5228H129.623V103.562H126.691V93.2055H129.623V97.0965H133.621V93.2055H136.552ZM146.079 101.55H141.696L140.882 103.562H137.891L142.466 93.2055H145.353L149.943 103.562H146.893L146.079 101.55ZM145.22 99.3896L143.887 96.0757L142.555 99.3896H145.22ZM47.1652 108V118.356H44.2335V114.317H40.2357V118.356H37.3041V108H40.2357V111.891H44.2335V108H47.1652ZM56.6918 116.344H52.3091L51.4947 118.356H48.5038L53.079 108H55.9663L60.5563 118.356H57.5061L56.6918 116.344ZM55.833 114.184L54.5004 110.87L53.1679 114.184H55.833ZM68.3032 112.971C68.8757 113.188 69.3248 113.513 69.6506 113.947C69.9763 114.381 70.1392 114.879 70.1392 115.442C70.1392 116.083 69.922 116.64 69.4877 117.113C69.0534 117.587 68.466 117.952 67.7257 118.208C66.9854 118.455 66.171 118.578 65.2827 118.578C64.5818 118.578 63.8662 118.494 63.1357 118.327C62.4151 118.159 61.7242 117.907 61.0628 117.572L61.9364 115.53C62.4003 115.767 62.8939 115.95 63.417 116.078C63.9501 116.196 64.4634 116.255 64.9569 116.255C65.6084 116.255 66.1414 116.152 66.556 115.945C66.9706 115.728 67.1779 115.427 67.1779 115.042C67.1779 114.736 67.0496 114.51 66.7929 114.362C66.5363 114.214 66.1908 114.14 65.7565 114.14H63.1061V111.995H65.5196C65.9144 111.995 66.2204 111.916 66.4376 111.758C66.6547 111.6 66.7633 111.388 66.7633 111.122C66.7633 110.786 66.5955 110.53 66.2599 110.352C65.9243 110.165 65.49 110.071 64.9569 110.071C64.5226 110.071 64.0636 110.135 63.5799 110.264C63.0962 110.382 62.6372 110.555 62.2029 110.781L61.3441 108.562C62.4497 108.03 63.6638 107.763 64.9865 107.763C65.8354 107.763 66.6202 107.887 67.3408 108.133C68.0712 108.37 68.6487 108.715 69.0731 109.169C69.5074 109.623 69.7246 110.16 69.7246 110.781C69.7246 111.265 69.5963 111.699 69.3396 112.083C69.0929 112.458 68.7474 112.754 68.3032 112.971ZM79.024 116.344H74.6413L73.827 118.356H70.8361L75.4113 108H78.2985L82.8885 118.356H79.8384L79.024 116.344ZM78.1653 114.184L76.8327 110.87L75.5001 114.184H78.1653ZM88.9625 108C89.9002 108 90.7146 108.158 91.4055 108.473C92.0965 108.779 92.6295 109.223 93.0046 109.805C93.3797 110.377 93.5673 111.053 93.5673 111.832C93.5673 112.611 93.3797 113.287 93.0046 113.859C92.6295 114.431 92.0965 114.875 91.4055 115.19C90.7146 115.496 89.9002 115.649 88.9625 115.649H87.1561V118.356H84.2244V108H88.9625ZM88.7848 113.341C89.3869 113.341 89.841 113.213 90.147 112.956C90.453 112.69 90.606 112.315 90.606 111.832C90.606 111.349 90.453 110.974 90.147 110.707C89.841 110.441 89.3869 110.308 88.7848 110.308H87.1561V113.341H88.7848ZM95.0435 108H103.705V110.264H97.9307V111.935H100.611C101.864 111.935 102.827 112.202 103.498 112.734C104.169 113.267 104.505 114.031 104.505 115.027C104.505 116.073 104.13 116.892 103.38 117.483C102.629 118.065 101.578 118.356 100.226 118.356H95.0435V108ZM100.033 116.255C100.527 116.255 100.902 116.157 101.159 115.959C101.415 115.762 101.544 115.481 101.544 115.116C101.544 114.386 101.04 114.021 100.033 114.021H97.9307V116.255H100.033ZM113.202 116.344H108.819L108.005 118.356H105.014L109.589 108H112.477L117.067 118.356H114.016L113.202 116.344ZM112.343 114.184L111.011 110.87L109.678 114.184H112.343ZM126.724 116.093V118.356H118.402V108H126.531V110.264H121.304V112.009H125.909V114.199H121.304V116.093H126.724ZM136.093 112.941C136.705 113.139 137.169 113.444 137.485 113.859C137.811 114.273 137.974 114.786 137.974 115.397C137.974 116.315 137.613 117.04 136.893 117.572C136.182 118.095 135.17 118.356 133.857 118.356H128.542V108H133.576C134.82 108 135.782 108.237 136.463 108.71C137.154 109.174 137.5 109.835 137.5 110.693C137.5 111.196 137.376 111.64 137.13 112.024C136.893 112.409 136.547 112.715 136.093 112.941ZM131.429 112.143H133.295C134.124 112.143 134.539 111.802 134.539 111.122C134.539 110.441 134.124 110.101 133.295 110.101H131.429V112.143ZM133.739 116.255C134.588 116.255 135.012 115.895 135.012 115.175C135.012 114.475 134.588 114.125 133.739 114.125H131.429V116.255H133.739ZM146.859 116.344H142.477L141.662 118.356H138.672L143.247 108H146.134L150.724 118.356H147.674L146.859 116.344ZM146.001 114.184L144.668 110.87L143.336 114.184H146.001Z" fill="#1B2E50"/>
</g>
<defs>
<clipPath id="clip0">
<rect width="153" height="120" fill="white"/>
</clipPath>
</defs>
</svg>
