<svg width="331" height="78" viewBox="0 0 331 78" fill="none" xmlns="http://www.w3.org/2000/svg">
<g clip-path="url(#clip0)">
<path d="M72.0555 10.3118H40.9684L37.1491 15.7068L36.2498 16.986H49.3064V48.7667H22.516C19.53 48.7718 16.6034 47.9308 14.0741 46.3407C11.5448 44.7506 9.51591 42.4763 8.22155 39.7802C6.92719 37.0842 6.42018 34.0764 6.75905 31.104C7.09791 28.1317 8.26884 25.3159 10.1367 22.9818C11.618 21.1148 13.5001 19.6063 15.6433 18.5683C17.7865 17.5303 20.1355 16.9895 22.516 16.986H31.6645L34.107 13.5265L36.383 10.3118H22.516C16.6295 10.4427 11.0281 12.8776 6.9112 17.095C2.79427 21.3124 0.489014 26.9772 0.489014 32.8764C0.489014 38.7756 2.79427 44.4403 6.9112 48.6577C11.0281 52.8752 16.6295 55.31 22.516 55.441H55.9679V16.986H65.505L72.0555 10.3118Z" fill="#1B2E50"/>
<path d="M182.637 10.3118H151.539L147.719 15.7068L146.82 16.986H159.899V55.441H166.56V16.986H176.086L182.637 10.3118Z" fill="#1B2E50"/>
<path d="M106.018 43.672C107.839 41.6104 109.199 39.1834 110.009 36.5531C110.819 33.9228 111.06 31.1496 110.715 28.4187C110.371 25.6878 109.449 23.0619 108.011 20.7164C106.573 18.3709 104.652 16.3596 102.377 14.8169C101.873 14.4619 101.351 14.1351 100.811 13.838C97.97 12.2769 94.7807 11.4618 91.5404 11.4686H81.9256V6.04022L76.2855 11.4686H75.7415V11.9914L70.5566 16.986L72.1665 18.0984L75.2752 20.3232L80.7155 24.2165L81.9256 25.0841V18.1429H91.5404C93.6626 18.1363 95.7519 18.6683 97.6135 19.6891C100.084 21.0424 102.034 23.181 103.157 25.7678C104.281 28.3545 104.512 31.2422 103.816 33.9756C103.12 36.7089 101.536 39.1324 99.3133 40.8639C97.0906 42.5954 94.3559 43.5364 91.5404 43.5385H75.7415V65.7861H82.403V50.2128H91.5404C94.2792 50.2177 96.9876 49.6368 99.4843 48.5088C101.981 47.3808 104.209 45.7318 106.018 43.672Z" fill="#1B2E50"/>
<path d="M248.697 10.8012L243.257 6.90788L242.035 6.04022V10.3118H229.6C228.209 10.3118 226.83 10.5866 225.545 11.1206C224.259 11.6546 223.091 12.4373 222.107 13.4239C221.123 14.4105 220.343 15.5817 219.812 16.8705C219.28 18.1593 219.007 19.5404 219.009 20.935V48.7444H200.956C198.997 48.7379 197.057 48.3605 195.238 47.6321C192.62 46.618 190.319 44.9204 188.577 42.7154C187.301 41.1199 186.347 39.2914 185.768 37.3314H207.395V30.6572H185.235C185.624 27.8249 186.775 25.1523 188.565 22.9261C190.308 20.7211 192.608 19.0235 195.227 18.0094C197.046 17.281 198.986 16.9035 200.945 16.897H210.093L212.536 13.4375L214.812 10.2228H200.956C195.069 10.3537 189.468 12.7886 185.351 17.006C181.234 21.2234 178.929 26.8882 178.929 32.7874C178.929 38.6866 181.234 44.3513 185.351 48.5687C189.468 52.7862 195.069 55.221 200.956 55.352H225.681V20.8682C225.681 19.8228 226.095 18.8201 226.832 18.0798C227.569 17.3396 228.568 16.9222 229.612 16.9193H242.035V25.0619L247.675 19.6335L253.404 14.0716L251.794 12.9592L248.697 10.8012Z" fill="#1B2E50"/>
<path d="M146.542 39.2447L129.866 10.3118L103.864 55.441H111.558H137.205L141.047 48.7667H115.4L129.866 23.6603L142.69 45.919V45.9079L148.186 55.441H155.869L146.542 39.2447Z" fill="#1B2E50"/>
<path d="M260.055 39.0779V11.2684L255.159 15.9849L253.393 17.6868V45.9079V55.3075L260.055 48.4775L280.617 27.3979V55.441H287.278V20.5679V11.1906L280.617 18.0094L260.055 39.0779Z" fill="#1B2E50"/>
<path d="M321.852 10.3117H306.952C304.256 10.3053 301.61 11.0377 299.301 12.4297C296.991 13.8216 295.105 15.8201 293.847 18.2088C292.589 20.5975 292.007 23.2854 292.165 25.9815C292.322 28.6776 293.212 31.2793 294.739 33.5048C296.201 35.6422 298.195 37.36 300.524 38.4883L299.413 39.9455L287.745 55.441H296.926L308.651 39.9455L308.74 39.8343L313.702 33.2712H307.041C306.29 33.2717 305.542 33.1669 304.82 32.9598C302.935 32.4218 301.307 31.2192 300.237 29.5737C299.167 27.9282 298.727 25.9506 298.997 24.0054C299.268 22.0602 300.231 20.2785 301.709 18.9885C303.187 17.6986 305.081 16.9874 307.041 16.986H326.048L331.089 10.3117H321.852Z" fill="#1B2E50"/>
<path d="M331 64.5068H0V78H331V64.5068Z" fill="#1B2E50"/>
<path d="M10.8361 75.4193H5.38477V68.2778H6.8392V74.0955H9.82578V68.2778H11.2802V74.0955H12.2128V76.9432H10.8361V75.4193Z" fill="white"/>
<path d="M13.634 68.2778H18.4303V69.5904H15.0996V71.0476H17.5421V72.3046H15.0996V74.1066H18.5636V75.4193H13.634V68.2778Z" fill="white"/>
<path d="M20.1511 68.2778H21.6056V71.0142H24.7587V68.2778H26.2242V75.4193H24.7587V72.3046H21.6056V75.4193H20.1511V68.2778Z" fill="white"/>
<path d="M29.7881 69.5904H27.501V68.2778H33.5297V69.5904H31.2425V75.4193H29.7881V69.5904Z" fill="white"/>
<path d="M34.8176 68.2778H37.4933C37.8191 68.2385 38.1495 68.2688 38.4628 68.3669C38.776 68.4649 39.0649 68.6284 39.3104 68.8465C39.5559 69.0647 39.7525 69.3325 39.8871 69.6323C40.0217 69.9322 40.0913 70.2572 40.0913 70.586C40.0913 70.9148 40.0217 71.2398 39.8871 71.5396C39.7525 71.8395 39.5559 72.1073 39.3104 72.3254C39.0649 72.5436 38.776 72.7071 38.4628 72.8051C38.1495 72.9031 37.8191 72.9335 37.4933 72.8942H36.2721V75.4193H34.8176V68.2778ZM37.4933 71.6149C37.6372 71.6299 37.7826 71.6145 37.9201 71.5696C38.0576 71.5248 38.1841 71.4514 38.2915 71.3544C38.399 71.2574 38.4848 71.1389 38.5436 71.0065C38.6024 70.8741 38.6328 70.7309 38.6328 70.586C38.6328 70.4411 38.6024 70.2978 38.5436 70.1654C38.4848 70.0331 38.399 69.9145 38.2915 69.8175C38.1841 69.7205 38.0576 69.6472 37.9201 69.6023C37.7826 69.5575 37.6372 69.542 37.4933 69.557H36.2721V71.6149H37.4933Z" fill="white"/>
<path d="M47.9741 68.1443C48.6008 68.1361 49.2184 68.2957 49.763 68.6066C50.3075 68.9176 50.7593 69.3686 51.0717 69.913L49.9614 70.7028C49.7606 70.3359 49.465 70.0298 49.1056 69.8165C48.7462 69.6032 48.3363 69.4906 47.9186 69.4903C47.3237 69.5313 46.7665 69.797 46.3596 70.2337C45.9527 70.6704 45.7264 71.2456 45.7264 71.843C45.7264 72.4404 45.9527 73.0156 46.3596 73.4523C46.7665 73.889 47.3237 74.1547 47.9186 74.1957C48.3354 74.1977 48.7451 74.0872 49.1045 73.8758C49.464 73.6644 49.76 73.3599 49.9614 72.9943L51.0717 73.773C50.7581 74.3295 50.2986 74.7896 49.7428 75.1033C49.187 75.417 48.5562 75.5724 47.9186 75.5528C46.938 75.5528 45.9977 75.1625 45.3043 74.4678C44.611 73.7732 44.2214 72.831 44.2214 71.8486C44.2214 70.8661 44.611 69.924 45.3043 69.2293C45.9977 68.5346 46.938 68.1443 47.9186 68.1443H47.9741Z" fill="white"/>
<path d="M56.0012 68.1443C56.7267 68.1683 57.4291 68.4058 58.0209 68.8272C58.6126 69.2485 59.0674 69.8351 59.3286 70.5137C59.5898 71.1923 59.6458 71.933 59.4896 72.6433C59.3335 73.3536 58.9721 74.0021 58.4505 74.508C57.9289 75.0139 57.2702 75.3547 56.5566 75.488C55.8429 75.6213 55.1059 75.5411 54.4374 75.2575C53.7689 74.9739 53.1986 74.4994 52.7975 73.8932C52.3964 73.287 52.1823 72.5759 52.1819 71.8485C52.1862 71.3529 52.2888 70.8632 52.4837 70.4077C52.6787 69.9522 52.9622 69.5401 53.3176 69.1954C53.673 68.8507 54.0933 68.5802 54.554 68.3998C55.0147 68.2193 55.5066 68.1325 56.0012 68.1443ZM56.0012 69.4903C55.533 69.477 55.0716 69.604 54.6758 69.8549C54.2801 70.1058 53.9681 70.4693 53.7797 70.8989C53.5913 71.3284 53.535 71.8046 53.6182 72.2663C53.7014 72.7281 53.9201 73.1545 54.2465 73.491C54.5729 73.8275 54.992 74.0588 55.4503 74.1554C55.9086 74.2519 56.3852 74.2093 56.8192 74.0329C57.2532 73.8566 57.6248 73.5545 57.8865 73.1654C58.1482 72.7762 58.2881 72.3178 58.2883 71.8485C58.3069 71.5406 58.2613 71.2322 58.1546 70.9428C58.0478 70.6535 57.8821 70.3895 57.6681 70.1677C57.4541 69.946 57.1963 69.7712 56.9113 69.6546C56.6262 69.538 56.3201 69.482 56.0123 69.4903H56.0012Z" fill="white"/>
<path d="M66.815 75.4193H61.3525V68.2778H62.807V74.0955H65.7936V68.2778H67.2591V74.0955H68.2028V76.9432H66.815V75.4193Z" fill="white"/>
<path d="M75.7193 68.1443V75.4193H74.2649V70.9697L70.0792 75.5305H69.6018V68.2778H71.0562V72.6606L75.2197 68.1443H75.7193Z" fill="white"/>
<path d="M81.8812 74.5294H78.9613L78.5616 75.4638H76.9961L80.1825 68.1888H80.6711L83.8464 75.4638H82.2809L81.8812 74.5294ZM80.4157 70.9142L79.472 73.328H81.3705L80.4157 70.9142Z" fill="white"/>
<path d="M90.7411 68.2778V75.4193H89.2867V69.5904H87.2327C87.1439 74.2068 86.4555 75.4971 84.9345 75.5305C84.7222 75.5314 84.5116 75.4937 84.3127 75.4193V74.1734C84.4087 74.1834 84.5054 74.1834 84.6014 74.1734C85.4785 74.1734 85.7894 72.7829 85.8338 69.5681V68.2778H90.7411Z" fill="white"/>
<path d="M92.7061 68.2778H94.1605V70.7361H95.4817C95.812 70.6965 96.147 70.7276 96.4645 70.8272C96.782 70.9268 97.0748 71.0927 97.3236 71.3139C97.5724 71.5352 97.7716 71.8068 97.908 72.1108C98.0444 72.4148 98.1149 72.7444 98.1149 73.0777C98.1149 73.411 98.0444 73.7405 97.908 74.0446C97.7716 74.3486 97.5724 74.6202 97.3236 74.8414C97.0748 75.0627 96.782 75.2286 96.4645 75.3282C96.147 75.4278 95.812 75.4588 95.4817 75.4192H92.7061V68.2778ZM95.4817 74.1289C95.6254 74.1433 95.7705 74.1267 95.9072 74.0802C96.0439 74.0336 96.1691 73.9583 96.2743 73.8592C96.3795 73.7601 96.4623 73.6396 96.5171 73.5057C96.5719 73.3719 96.5974 73.2278 96.5919 73.0832C96.6056 72.9337 96.5863 72.7831 96.5353 72.6419C96.4843 72.5007 96.403 72.3725 96.297 72.2664C96.1911 72.1602 96.0631 72.0787 95.9222 72.0276C95.7813 71.9766 95.6309 71.9572 95.4817 71.9709H94.1605V74.0955L95.4817 74.1289Z" fill="white"/>
<path d="M99.6343 68.2778H101.089V71.0142H104.242V68.2778H105.707V75.4193H104.242V72.3046H101.089V75.4193H99.6343V68.2778Z" fill="white"/>
<path d="M107.695 68.2778H109.16V70.7361H110.459C110.789 70.6965 111.124 70.7276 111.442 70.8272C111.759 70.9268 112.052 71.0927 112.301 71.3139C112.55 71.5352 112.749 71.8068 112.885 72.1108C113.022 72.4148 113.092 72.7444 113.092 73.0777C113.092 73.411 113.022 73.7405 112.885 74.0446C112.749 74.3486 112.55 74.6202 112.301 74.8414C112.052 75.0627 111.759 75.2286 111.442 75.3282C111.124 75.4278 110.789 75.4588 110.459 75.4192H107.695V68.2778ZM110.459 74.1289C110.603 74.1452 110.749 74.1299 110.887 74.0841C111.024 74.0383 111.15 73.963 111.256 73.8635C111.361 73.7641 111.444 73.6427 111.498 73.508C111.552 73.3732 111.577 73.2283 111.569 73.0832C111.583 72.9337 111.564 72.7831 111.513 72.6419C111.462 72.5007 111.38 72.3725 111.274 72.2664C111.168 72.1602 111.041 72.0787 110.9 72.0276C110.759 71.9766 110.608 71.9572 110.459 71.9709H109.116V74.0955L110.459 74.1289ZM114.19 68.2778H115.655V75.4192H114.19V68.2778Z" fill="white"/>
<path d="M121.573 75.4193L120.052 73.0499L118.542 75.4193H116.876L119.241 71.7818L117.021 68.2778H118.686L120.052 70.5025L121.417 68.2778H123.072L120.851 71.7818L123.238 75.4193H121.573Z" fill="white"/>
<path d="M133.985 68.1443V75.4193H132.52V70.9697L128.334 75.5305H127.868V68.2778H129.322V72.6606L133.497 68.1443H133.985Z" fill="white"/>
<path d="M139.281 68.2778H145.243V75.4193H143.789V69.5904H140.736V75.4193H139.281V68.2778Z" fill="white"/>
<path d="M150.573 68.1443C151.3 68.1618 152.006 68.3938 152.602 68.8114C153.198 69.2289 153.658 69.8133 153.924 70.4915C154.191 71.1698 154.251 71.9116 154.099 72.6242C153.946 73.3368 153.587 73.9885 153.067 74.4976C152.546 75.0068 151.888 75.3509 151.173 75.4867C150.458 75.6226 149.72 75.5442 149.049 75.2614C148.379 74.9787 147.807 74.504 147.404 73.8969C147.002 73.2898 146.787 72.5773 146.787 71.8485C146.791 71.3558 146.892 70.8688 147.085 70.4155C147.278 69.9622 147.559 69.5517 147.911 69.2074C148.262 68.8631 148.679 68.592 149.136 68.4095C149.592 68.2271 150.081 68.1369 150.573 68.1443ZM150.573 69.4903C150.104 69.477 149.643 69.6039 149.247 69.8548C148.852 70.1058 148.54 70.4693 148.351 70.8988C148.163 71.3284 148.106 71.8045 148.19 72.2663C148.273 72.7281 148.492 73.1545 148.818 73.491C149.144 73.8275 149.563 74.0588 150.022 74.1554C150.48 74.2519 150.957 74.2093 151.391 74.0329C151.825 73.8565 152.196 73.5545 152.458 73.1654C152.72 72.7762 152.86 72.3177 152.86 71.8485C152.878 71.5406 152.833 71.2321 152.726 70.9428C152.619 70.6534 152.454 70.3895 152.24 70.1677C152.025 69.9459 151.768 69.7712 151.483 69.6546C151.198 69.5379 150.891 69.482 150.584 69.4903H150.573Z" fill="white"/>
<path d="M161.531 68.2778V75.4193H160.076V69.5904H158.023C157.934 74.2068 157.245 75.4971 155.713 75.5305C155.505 75.5316 155.297 75.4938 155.103 75.4193V74.1734H155.391C156.268 74.1734 156.579 72.7829 156.624 69.5681V68.2778H161.531Z" fill="white"/>
<path d="M169.613 68.1443V75.4193H168.148V70.9697L163.973 75.5305H163.496V68.2778H164.95V72.6606L169.125 68.1443H169.613Z" fill="white"/>
<path d="M173.2 69.5904H170.913V68.2778H176.941V69.5904H174.654V75.4193H173.2V69.5904Z" fill="white"/>
<path d="M184.302 68.1443V75.4193H182.859V70.9697L178.684 75.5305H178.207V68.2778H179.661V72.6606L183.836 68.1443H184.302Z" fill="white"/>
<path d="M191.752 68.2778V75.4193H190.298V72.7829C189.821 72.9581 189.317 73.0448 188.81 73.0388C188.428 73.0805 188.042 73.0363 187.68 72.9094C187.318 72.7825 186.989 72.5761 186.716 72.3053C186.444 72.0345 186.235 71.7061 186.106 71.3441C185.976 70.9822 185.929 70.5958 185.968 70.2133V68.2778H187.433V70.0798C187.433 71.1922 187.933 71.715 189.054 71.715C189.478 71.7204 189.899 71.6488 190.298 71.5037V68.2778H191.752Z" fill="white"/>
<path d="M193.717 68.2778H198.513V69.5904H195.183V71.0476H197.625V72.3046H195.171V74.1066H198.647V75.4193H193.717V68.2778Z" fill="white"/>
<path d="M203.41 68.1443C204.036 68.1372 204.653 68.2973 205.198 68.6081C205.742 68.919 206.194 69.3693 206.507 69.913L205.397 70.7028C205.194 70.3374 204.898 70.0326 204.539 69.8196C204.18 69.6065 203.771 69.4929 203.354 69.4903C202.759 69.5313 202.202 69.797 201.795 70.2337C201.388 70.6704 201.162 71.2456 201.162 71.843C201.162 72.4404 201.388 73.0156 201.795 73.4523C202.202 73.889 202.759 74.1547 203.354 74.1957C203.77 74.1954 204.179 74.0839 204.538 73.8727C204.897 73.6616 205.194 73.3584 205.397 72.9943L206.507 73.773C206.191 74.3271 205.731 74.7851 205.176 75.0984C204.62 75.4118 203.991 75.5688 203.354 75.5528C202.374 75.5528 201.433 75.1625 200.74 74.4678C200.046 73.7732 199.657 72.831 199.657 71.8485C199.657 70.8661 200.046 69.924 200.74 69.2293C201.433 68.5346 202.374 68.1443 203.354 68.1443H203.41Z" fill="white"/>
<path d="M212.625 75.4193L209.572 71.6928V75.4193H208.117V68.2778H209.572V71.6149L212.292 68.2778H214.035L211.304 71.6149L214.39 75.397L212.625 75.4193Z" fill="white"/>
<path d="M221.784 68.1443V75.4193H220.33V70.9697L216.144 75.5305H215.678V68.2778H217.132V72.6606L221.307 68.1443H221.784Z" fill="white"/>
<path d="M227.747 75.4193L226.237 73.0499L224.727 75.4193H223.061L225.382 71.7818L223.161 68.2778H224.827L226.203 70.5025L227.569 68.2778H229.223L227.003 71.7818L229.345 75.4193H227.747Z" fill="white"/>
<path d="M240.159 68.1443V75.4193H238.705V70.9697L234.519 75.5305H234.042V68.2778H235.507V72.6606L239.67 68.1443H240.159Z" fill="white"/>
<path d="M245.511 68.1443C246.152 68.1211 246.788 68.2735 247.349 68.5851C247.91 68.8967 248.376 69.3558 248.697 69.913L247.587 70.7028C247.384 70.3374 247.088 70.0326 246.729 69.8195C246.37 69.6064 245.961 69.4928 245.544 69.4903C244.949 69.5313 244.392 69.797 243.985 70.2337C243.578 70.6704 243.352 71.2455 243.352 71.8429C243.352 72.4404 243.578 73.0155 243.985 73.4522C244.392 73.8889 244.949 74.1546 245.544 74.1956C245.96 74.1953 246.369 74.0839 246.728 73.8727C247.087 73.6615 247.383 73.3583 247.587 72.9943L248.697 73.7729C248.381 74.327 247.92 74.785 247.365 75.0984C246.81 75.4117 246.181 75.5687 245.544 75.5527C244.563 75.5527 243.623 75.1625 242.93 74.4678C242.236 73.7731 241.847 72.8309 241.847 71.8485C241.847 70.8661 242.236 69.9239 242.93 69.2292C243.623 68.5345 244.563 68.1443 245.544 68.1443H245.511Z" fill="white"/>
<path d="M253.549 68.1443C254.184 68.1295 254.812 68.2859 255.366 68.597C255.921 68.908 256.382 69.3625 256.702 69.9129L255.591 70.7027C255.391 70.335 255.096 70.0283 254.736 69.8149C254.377 69.6014 253.966 69.4893 253.549 69.4902C252.954 69.5313 252.397 69.7969 251.99 70.2336C251.583 70.6703 251.356 71.2455 251.356 71.8429C251.356 72.4404 251.583 73.0155 251.99 73.4522C252.397 73.8889 252.954 74.1546 253.549 74.1956C253.966 74.1989 254.376 74.0889 254.735 73.8774C255.095 73.6658 255.391 73.3607 255.591 72.9942L256.702 73.7729C256.384 74.3287 255.923 74.7878 255.365 75.1013C254.808 75.4147 254.176 75.5708 253.537 75.5527C252.557 75.5527 251.617 75.1625 250.923 74.4678C250.23 73.7731 249.84 72.8309 249.84 71.8485C249.84 70.8661 250.23 69.9239 250.923 69.2292C251.617 68.5345 252.557 68.1443 253.537 68.1443H253.549Z" fill="white"/>
<path d="M263.863 68.2778V75.4193H262.408V69.5904H260.355C260.266 74.2068 259.577 75.4971 258.056 75.5305C257.844 75.5314 257.633 75.4937 257.435 75.4193V74.1734C257.534 74.1837 257.635 74.1837 257.734 74.1734C258.6 74.1734 258.922 72.7829 258.967 69.5681V68.2778H263.863Z" fill="white"/>
<path d="M265.828 68.2778H270.624V69.5904H267.294V71.0476H269.792V72.3046H267.338V74.1066H270.802V75.4193H265.873L265.828 68.2778Z" fill="white"/>
<path d="M279.051 74.0955V76.9432H277.564V75.4193H273.123V76.9432H271.657V74.0955H272.234C272.845 73.5838 273.111 72.1266 273.111 69.4569V68.2778H278.074V74.0955H279.051ZM276.642 74.0955V69.646H274.51C274.595 71.1583 274.372 72.672 273.855 74.0955H276.642Z" fill="white"/>
<path d="M283.67 68.1443C284.397 68.1618 285.103 68.3938 285.699 68.8114C286.295 69.2289 286.755 69.8133 287.021 70.4915C287.288 71.1698 287.348 71.9116 287.196 72.6242C287.043 73.3368 286.684 73.9885 286.164 74.4976C285.644 75.0068 284.985 75.3509 284.27 75.4867C283.555 75.6226 282.817 75.5442 282.146 75.2614C281.476 74.9787 280.904 74.504 280.501 73.8969C280.099 73.2898 279.884 72.5773 279.884 71.8485C279.888 71.3558 279.99 70.8688 280.183 70.4155C280.375 69.9622 280.656 69.5517 281.008 69.2074C281.36 68.8631 281.776 68.592 282.233 68.4095C282.69 68.2271 283.178 68.1369 283.67 68.1443ZM283.67 69.4903C283.202 69.477 282.74 69.6039 282.344 69.8548C281.949 70.1058 281.637 70.4693 281.448 70.8988C281.26 71.3284 281.204 71.8045 281.287 72.2663C281.37 72.7281 281.589 73.1545 281.915 73.491C282.241 73.8275 282.661 74.0588 283.119 74.1554C283.577 74.2519 284.054 74.2093 284.488 74.0329C284.922 73.8565 285.293 73.5545 285.555 73.1654C285.817 72.7762 285.957 72.3177 285.957 71.8485C285.975 71.5406 285.93 71.2321 285.823 70.9428C285.716 70.6534 285.551 70.3895 285.337 70.1677C285.123 69.9459 284.865 69.7712 284.58 69.6546C284.295 69.5379 283.989 69.482 283.681 69.4903H283.67Z" fill="white"/>
<path d="M292.197 75.4193H289.021V68.2778H291.553C291.831 68.2534 292.111 68.2864 292.376 68.3748C292.641 68.4632 292.885 68.605 293.093 68.7917C293.301 68.9783 293.469 69.2056 293.586 69.4597C293.703 69.7138 293.767 69.9892 293.773 70.269C293.78 70.5078 293.735 70.7453 293.644 70.9658C293.552 71.1863 293.414 71.3848 293.24 71.5482C293.615 71.6645 293.941 71.9002 294.17 72.2195C294.398 72.5388 294.516 72.9242 294.506 73.3169C294.502 73.6102 294.439 73.8996 294.318 74.1671C294.198 74.4346 294.025 74.6744 293.808 74.8716C293.591 75.0689 293.336 75.2193 293.059 75.3135C292.782 75.4077 292.488 75.4437 292.197 75.4193ZM290.42 69.5237V71.1922H291.43C292.019 71.1922 292.363 70.8808 292.363 70.3691C292.363 69.8574 292.019 69.5571 291.43 69.5571L290.42 69.5237ZM292.086 72.3602H290.42V74.1623H292.086C292.729 74.1623 293.107 73.8286 293.107 73.2613C293.107 72.694 292.729 72.3602 292.086 72.3602Z" fill="white"/>
<path d="M300.146 74.5294H297.226L296.826 75.4638H295.261L298.447 68.1888H298.936L302.111 75.4638H300.546L300.146 74.5294ZM298.658 70.8697L297.704 73.2835H299.602L298.658 70.8697Z" fill="white"/>
<path d="M303.41 68.2778H304.865V71.0142H308.018V68.2778H309.483V75.4193H308.018V72.3046H304.865V75.4193H303.41V68.2778Z" fill="white"/>
<path d="M317.533 68.1443V75.4193H316.089V70.9697L311.904 75.5305H311.426V68.2778H312.892V72.6606L317.066 68.1443H317.533Z" fill="white"/>
<path d="M325.615 68.1443V75.4193H324.194V70.9698L320.008 75.5305H319.531V68.2778H320.997V72.6606L325.16 68.1443H325.615ZM320.863 65.5636H322.029V65.775C322.029 66.2866 322.284 66.5981 322.729 66.5981C323.173 66.5981 323.428 66.2866 323.428 65.775V65.5636H324.594V65.7305C324.602 65.9818 324.56 66.2323 324.47 66.4672C324.381 66.7022 324.245 66.9168 324.072 67.0987C323.898 67.277 323.688 67.4167 323.457 67.5087C323.225 67.6007 322.977 67.6429 322.729 67.6326C322.478 67.6404 322.229 67.5971 321.996 67.5053C321.764 67.4135 321.552 67.2752 321.374 67.0987C321.202 66.9163 321.068 66.7013 320.981 66.4663C320.893 66.2313 320.853 65.9811 320.863 65.7305V65.5636Z" fill="white"/>
<path d="M6.6614 1.57955C7.26344 1.57046 7.84499 1.79845 8.281 2.21449C8.71701 2.63053 8.97264 3.20139 8.99294 3.8043C8.99444 4.11045 8.935 4.41383 8.81809 4.69668C8.70117 4.97954 8.52914 5.2362 8.31204 5.45164C8.09494 5.66709 7.83713 5.83699 7.55371 5.95142C7.27029 6.06584 6.96694 6.12249 6.6614 6.11805C6.36397 6.11805 6.06945 6.05936 5.79466 5.94531C5.51986 5.83127 5.27018 5.66412 5.05986 5.4534C4.84955 5.24268 4.68271 4.99252 4.56889 4.7172C4.45507 4.44189 4.39648 4.1468 4.39648 3.8488C4.39648 3.5508 4.45507 3.25571 4.56889 2.98039C4.68271 2.70508 4.84955 2.45491 5.05986 2.24419C5.27018 2.03348 5.51986 1.86632 5.79466 1.75228C6.06945 1.63824 6.36397 1.57955 6.6614 1.57955ZM6.6614 2.41383C6.4708 2.40426 6.28031 2.43483 6.10222 2.50356C5.92413 2.57229 5.76239 2.67765 5.62744 2.81286C5.4925 2.94807 5.38733 3.11011 5.31873 3.28854C5.25014 3.46697 5.21963 3.65783 5.22917 3.8488C5.21963 4.03977 5.25014 4.23062 5.31873 4.40906C5.38733 4.58749 5.4925 4.74953 5.62744 4.88474C5.76239 5.01994 5.92413 5.12531 6.10222 5.19404C6.28031 5.26277 6.4708 5.29333 6.6614 5.28377C6.84696 5.28392 7.03064 5.24648 7.20139 5.17371C7.37215 5.10094 7.52646 4.99434 7.65505 4.8603C7.78364 4.72627 7.88387 4.56757 7.94969 4.39375C8.01552 4.21993 8.0456 4.03456 8.03812 3.8488C8.04405 3.66342 8.0129 3.47873 7.94651 3.3056C7.88012 3.13246 7.77983 2.97439 7.65155 2.84067C7.52326 2.70696 7.36957 2.60031 7.19952 2.527C7.02948 2.4537 6.84651 2.41522 6.6614 2.41383Z" fill="#1B2E50"/>
<path d="M24.7253 1.65741H27.6342V2.46945H25.6135V3.3371H26.5351C26.7202 3.31512 26.9079 3.33266 27.0858 3.38856C27.2638 3.44447 27.4279 3.53747 27.5673 3.66145C27.7068 3.78543 27.8185 3.93759 27.8951 4.10792C27.9717 4.27825 28.0114 4.46289 28.0117 4.64971C28.0172 4.84149 27.982 5.03226 27.9085 5.20944C27.8351 5.38661 27.7249 5.54616 27.5854 5.67755C27.4458 5.80895 27.2801 5.90921 27.099 5.97172C26.918 6.03423 26.7258 6.05756 26.5351 6.04018H24.7253V1.65741ZM26.4906 5.27264C26.5766 5.29723 26.667 5.3015 26.7549 5.28512C26.8427 5.26874 26.9256 5.23215 26.9969 5.17824C27.0682 5.12432 27.1261 5.05455 27.166 4.97442C27.2058 4.89429 27.2266 4.80598 27.2266 4.71645C27.2266 4.62692 27.2058 4.53862 27.166 4.45848C27.1261 4.37835 27.0682 4.30858 26.9969 4.25467C26.9256 4.20075 26.8427 4.16416 26.7549 4.14778C26.667 4.1314 26.5766 4.13567 26.4906 4.16026H25.6135V5.27264H26.4906Z" fill="#1B2E50"/>
<path d="M49.0287 6.04018H43.7439V1.65741H44.6432V5.22814H46.0754V1.65741H46.9747V5.22814H48.407V1.65741H49.3063V5.22814H49.8836V6.97458H49.0287V6.04018Z" fill="#1B2E50"/>
<path d="M65.5049 1.65741H68.4471V2.46945H66.4486V3.3371H67.9474V4.10464H66.4486V5.21702H68.5692V6.02906H65.5049V1.65741Z" fill="#1B2E50"/>
<path d="M86.3112 1.57953C86.7019 1.57291 87.0871 1.67294 87.4255 1.8689C87.7638 2.06485 88.0426 2.34935 88.2319 2.69191L87.5658 3.17023C87.4401 2.94765 87.2578 2.76243 87.0374 2.63345C86.817 2.50448 86.5664 2.43637 86.3112 2.43606C86.1218 2.43125 85.9336 2.46562 85.7581 2.53703C85.5827 2.60844 85.4238 2.71535 85.2914 2.85107C85.1591 2.9868 85.0561 3.14842 84.989 3.32584C84.9218 3.50325 84.8919 3.69264 84.9012 3.88216C84.8934 4.07027 84.9245 4.25795 84.9925 4.43347C85.0604 4.60899 85.1638 4.76857 85.2962 4.90222C85.4285 5.03587 85.587 5.14071 85.7616 5.21019C85.9363 5.27967 86.1234 5.31228 86.3112 5.306C86.5664 5.3057 86.817 5.23759 87.0374 5.10861C87.2578 4.97964 87.4401 4.79442 87.5658 4.57183L88.2319 5.05015C88.0436 5.39606 87.7635 5.68304 87.4226 5.87936C87.0817 6.07568 86.6932 6.17369 86.3001 6.16253C85.6994 6.16253 85.1233 5.92345 84.6985 5.49789C84.2738 5.07232 84.0352 4.49512 84.0352 3.89328C84.0352 3.29144 84.2738 2.71424 84.6985 2.28868C85.1233 1.86311 85.6994 1.62403 86.3001 1.62403L86.3112 1.57953Z" fill="#1B2E50"/>
<path d="M104.997 2.46945H103.598V1.65741H107.295V2.46945H105.885V6.04018H104.997V2.46945Z" fill="#1B2E50"/>
<path d="M124.848 6.0402H122.894V1.65743H124.448C124.62 1.64054 124.794 1.65941 124.958 1.71287C125.123 1.76633 125.274 1.85322 125.403 1.9681C125.533 2.08297 125.637 2.22336 125.709 2.38046C125.782 2.53755 125.821 2.70798 125.825 2.88104C125.831 3.02815 125.806 3.17485 125.75 3.31116C125.695 3.44746 125.61 3.57014 125.503 3.67083C125.737 3.74426 125.94 3.89321 126.081 4.09443C126.221 4.29566 126.292 4.53784 126.28 4.78321C126.274 4.96166 126.231 5.13684 126.154 5.29805C126.077 5.45926 125.968 5.60309 125.834 5.72076C125.7 5.83843 125.544 5.92744 125.374 5.98237C125.205 6.0373 125.026 6.05697 124.848 6.0402ZM123.738 2.42497V3.42611H124.348C124.715 3.42611 124.915 3.237 124.915 2.92554C124.915 2.61407 124.715 2.42497 124.348 2.42497H123.738ZM124.759 4.1714H123.738V5.28378H124.759C124.838 5.29519 124.918 5.28921 124.994 5.26626C125.07 5.2433 125.14 5.20394 125.2 5.15093C125.259 5.09792 125.306 5.03255 125.337 4.95941C125.368 4.88628 125.383 4.80715 125.381 4.72759C125.459 4.38275 125.17 4.1714 124.781 4.1714H124.759Z" fill="#1B2E50"/>
<path d="M142.024 1.65741H144.966V2.46945H142.912V3.3371H144.422V4.10464H142.912V5.21702H145.044V6.02906H142.024V1.65741Z" fill="#1B2E50"/>
<path d="M160.831 1.65741H161.72V3.3371H163.651V1.65741H164.551V6.04018H163.651V4.14914H161.72V6.04018H160.831V1.65741Z" fill="#1B2E50"/>
<path d="M180.561 1.65741H181.46V3.3371H183.392V1.65741H184.28V6.04018H183.392V4.14914H181.46V6.04018H180.561V1.65741Z" fill="#1B2E50"/>
<path d="M200.29 1.65741H201.189V3.17024H201.988C202.192 3.14486 202.398 3.16303 202.593 3.22354C202.789 3.28405 202.969 3.38553 203.123 3.52122C203.276 3.65692 203.399 3.82375 203.483 4.01064C203.567 4.19752 203.61 4.4002 203.61 4.60521C203.61 4.81023 203.567 5.0129 203.483 5.19979C203.399 5.38668 203.276 5.5535 203.123 5.6892C202.969 5.8249 202.789 5.92637 202.593 5.98688C202.398 6.0474 202.192 6.06556 201.988 6.04018H200.29V1.65741ZM201.988 5.25039C202.077 5.26029 202.167 5.25068 202.251 5.22224C202.335 5.19379 202.412 5.14721 202.477 5.08574C202.542 5.02427 202.592 4.94941 202.624 4.86641C202.657 4.7834 202.671 4.69425 202.666 4.60521C202.671 4.51575 202.657 4.42622 202.624 4.34275C202.592 4.25927 202.542 4.1838 202.477 4.1215C202.413 4.0592 202.336 4.01153 202.252 3.98175C202.167 3.95196 202.078 3.94076 201.988 3.94891H201.189V5.25039H201.988ZM204.287 1.65741H205.186V6.04018H204.287V1.65741Z" fill="#1B2E50"/>
<path d="M224.926 1.57958V6.02909H224.038V3.33714L221.473 6.11808H221.185V1.66857H222.073V4.3494L224.638 1.57958H224.926ZM222.051 0H222.761V0.122362C222.761 0.444951 222.917 0.634056 223.194 0.634056C223.472 0.634056 223.627 0.444951 223.627 0.122362V0H224.271V0.100114C224.278 0.254633 224.254 0.408933 224.201 0.554058C224.147 0.699184 224.066 0.832246 223.96 0.945522C223.853 1.0527 223.724 1.13662 223.583 1.19211C223.442 1.24759 223.291 1.27346 223.139 1.26811C222.985 1.27501 222.832 1.2499 222.689 1.19437C222.545 1.13884 222.415 1.0541 222.306 0.945522C222.114 0.708073 222.022 0.404542 222.051 0.100114V0Z" fill="#1B2E50"/>
<path d="M265.106 6.17373H264.24V5.63979C263.008 5.58417 262.153 4.91674 262.153 3.80436C262.142 3.56177 262.188 3.31996 262.286 3.09797C262.384 2.87598 262.533 2.67988 262.719 2.52513C263.156 2.19163 263.691 2.01178 264.24 2.01343V1.52399H265.14V2.01343C266.361 2.06905 267.238 2.70311 267.238 3.82661C267.238 4.95011 266.361 5.58417 265.14 5.63979L265.106 6.17373ZM264.24 2.76985C263.497 2.76985 263.03 3.19255 263.03 3.88223C263.03 4.5719 263.474 4.88337 264.24 4.91674V2.76985ZM265.14 2.76985V4.87225C265.895 4.87225 266.35 4.47179 266.35 3.81549C266.35 3.15918 265.873 2.80322 265.106 2.76985H265.14Z" fill="#1B2E50"/>
<path d="M285.024 1.57959C285.626 1.57051 286.208 1.7985 286.644 2.21454C287.08 2.63058 287.336 3.20143 287.356 3.80435C287.336 4.40726 287.08 4.97812 286.644 5.39416C286.208 5.8102 285.626 6.03819 285.024 6.02911C284.424 6.02911 283.848 5.79002 283.423 5.36446C282.998 4.93889 282.76 4.3617 282.76 3.75985C282.76 3.15801 282.998 2.58082 283.423 2.15525C283.848 1.72968 284.424 1.4906 285.024 1.4906V1.57959ZM285.024 2.41388C284.837 2.40906 284.65 2.44314 284.476 2.51398C284.301 2.58483 284.144 2.69092 284.013 2.82562C283.881 2.96031 283.779 3.12071 283.713 3.29678C283.646 3.47284 283.616 3.66079 283.626 3.84884C283.616 4.0369 283.646 4.22484 283.713 4.40091C283.779 4.57697 283.881 4.73737 284.013 4.87207C284.144 5.00676 284.301 5.11285 284.476 5.1837C284.65 5.25455 284.837 5.28863 285.024 5.28381C285.214 5.29009 285.402 5.25718 285.578 5.18714C285.754 5.11711 285.914 5.01144 286.047 4.87676C286.181 4.74208 286.285 4.58128 286.353 4.40441C286.422 4.22755 286.453 4.03841 286.446 3.84884C286.452 3.65969 286.419 3.47128 286.35 3.29516C286.281 3.11903 286.177 2.95889 286.044 2.82455C285.911 2.69021 285.752 2.58449 285.576 2.51388C285.401 2.44326 285.213 2.40923 285.024 2.41388Z" fill="#1B2E50"/>
<path d="M303.099 1.65741H303.988V3.3371H305.919V1.65741H306.819V6.04018H305.919V4.14914H303.988V6.04018H303.099V1.65741Z" fill="#1B2E50"/>
<path d="M326.97 5.22814V6.97458H326.07V6.04018H323.35V6.97458H322.451V5.22814H322.806C323.184 4.91668 323.339 4.02678 323.339 2.38046V1.65741H326.415V5.22814H326.97ZM325.493 5.22814V2.46945H324.194C324.251 3.40672 324.115 4.34565 323.794 5.22814H325.493Z" fill="#1B2E50"/>
</g>
<defs>
<clipPath id="clip0">
<rect width="331" height="78" fill="white"/>
</clipPath>
</defs>
</svg>
